<?xml version="1.0" encoding="UTF-8"?>
<!DOCTYPE svg PUBLIC "-//W3C//DTD SVG 1.1//EN" "http://www.w3.org/Graphics/SVG/1.1/DTD/svg11.dtd">
<svg version="1.2" width="297mm" height="210mm" viewBox="0 0 29700 21000" preserveAspectRatio="xMidYMid" fill-rule="evenodd" stroke-width="28.222" stroke-linejoin="round" xmlns="http://www.w3.org/2000/svg" xmlns:ooo="http://xml.openoffice.org/svg/export" xmlns:xlink="http://www.w3.org/1999/xlink" xmlns:presentation="http://sun.com/xmlns/staroffice/presentation" xmlns:smil="http://www.w3.org/2001/SMIL20/" xmlns:anim="urn:oasis:names:tc:opendocument:xmlns:animation:1.0" xml:space="preserve">
 <defs class="ClipPathGroup">
  <clipPath id="presentation_clip_path" clipPathUnits="userSpaceOnUse">
   <rect x="0" y="0" width="29700" height="21000"/>
  </clipPath>
  <clipPath id="presentation_clip_path_shrink" clipPathUnits="userSpaceOnUse">
   <rect x="29" y="21" width="29641" height="20958"/>
  </clipPath>
 </defs>
 <defs>
  <font id="EmbeddedFont_1" horiz-adv-x="2048">
   <font-face font-family="monospace embedded" units-per-em="2048" font-weight="normal" font-style="normal" ascent="1879" descent="476"/>
   <missing-glyph horiz-adv-x="2048" d="M 0,0 L 2047,0 2047,2047 0,2047 0,0 Z"/>
   <glyph unicode="v" horiz-adv-x="1060" d="M 100,1120 L 291,1120 616,180 942,1120 1133,1120 735,0 498,0 100,1120 Z"/>
   <glyph unicode="u" horiz-adv-x="874" d="M 195,424 L 195,1118 379,1118 379,424 C 379,323 397,249 433,202 468,155 523,131 598,131 685,131 751,162 797,223 843,284 866,371 866,485 L 866,1118 1051,1118 1051,0 866,0 866,168 C 833,103 789,54 733,21 676,-12 610,-29 535,-29 420,-29 335,9 279,84 223,159 195,272 195,424 Z"/>
   <glyph unicode="t" horiz-adv-x="927" d="M 614,1438 L 614,1120 1032,1120 1032,977 614,977 614,369 C 614,286 630,229 661,196 692,163 747,147 825,147 L 1032,147 1032,0 807,0 C 669,0 572,28 515,83 458,138 430,234 430,369 L 430,977 131,977 131,1120 430,1120 430,1438 614,1438 Z"/>
   <glyph unicode="s" horiz-adv-x="821" d="M 973,1081 L 973,901 C 920,932 867,955 814,970 761,985 706,993 651,993 568,993 506,980 465,953 424,926 403,884 403,829 403,779 418,742 449,717 480,692 556,668 678,645 L 752,631 C 843,614 913,579 960,527 1007,475 1030,407 1030,324 1030,213 991,127 912,65 833,2 724,-29 584,-29 529,-29 471,-23 410,-12 349,0 284,18 213,41 L 213,231 C 282,196 347,169 410,152 473,134 532,125 588,125 669,125 732,142 777,175 822,208 844,254 844,313 844,398 762,457 599,490 L 591,492 522,506 C 416,527 339,562 290,611 241,660 217,726 217,811 217,918 253,1001 326,1060 399,1118 502,1147 637,1147 697,1147 755,1142 810,1131 865,1120 920,1103 973,1081 Z"/>
   <glyph unicode="r" horiz-adv-x="821" d="M 1155,889 C 1116,920 1076,942 1035,956 994,970 950,977 901,977 786,977 699,941 638,869 577,797 547,693 547,557 L 547,0 362,0 362,1120 547,1120 547,901 C 578,980 625,1041 689,1084 752,1126 828,1147 915,1147 960,1147 1003,1141 1042,1130 1081,1119 1119,1101 1155,1077 L 1155,889 Z"/>
   <glyph unicode="p" horiz-adv-x="927" d="M 375,141 L 375,-426 190,-426 190,1120 375,1120 375,977 C 406,1032 447,1075 498,1104 549,1133 607,1147 674,1147 809,1147 916,1095 993,990 1070,885 1108,740 1108,555 1108,373 1069,230 992,127 915,23 809,-29 674,-29 606,-29 547,-14 496,15 445,44 404,86 375,141 Z M 915,559 C 915,702 893,809 848,882 803,955 736,991 647,991 558,991 490,955 444,882 398,809 375,701 375,559 375,418 398,310 444,237 490,164 558,127 647,127 736,127 803,163 848,236 893,309 915,416 915,559 Z"/>
   <glyph unicode="o" horiz-adv-x="980" d="M 616,991 C 523,991 452,955 404,882 356,809 332,702 332,559 332,417 356,310 404,237 452,164 523,127 616,127 710,127 781,164 829,237 877,310 901,417 901,559 901,702 877,809 829,882 781,955 710,991 616,991 Z M 616,1147 C 771,1147 890,1097 973,996 1055,895 1096,750 1096,559 1096,368 1055,222 973,122 891,21 772,-29 616,-29 461,-29 342,21 260,122 178,222 137,368 137,559 137,750 178,895 260,996 342,1097 461,1147 616,1147 Z"/>
   <glyph unicode="n" horiz-adv-x="874" d="M 1051,694 L 1051,0 866,0 866,694 C 866,795 848,869 813,916 778,963 722,987 647,987 561,987 495,957 449,896 402,835 379,747 379,633 L 379,0 195,0 195,1120 379,1120 379,952 C 412,1016 456,1065 512,1098 568,1131 634,1147 711,1147 825,1147 910,1110 967,1035 1023,960 1051,846 1051,694 Z"/>
   <glyph unicode="m" horiz-adv-x="1033" d="M 676,1006 C 699,1054 728,1090 763,1113 798,1136 840,1147 889,1147 979,1147 1043,1112 1080,1043 1117,973 1135,842 1135,649 L 1135,0 967,0 967,641 C 967,799 958,897 941,936 923,974 891,993 844,993 791,993 754,973 735,932 715,891 705,794 705,641 L 705,0 537,0 537,641 C 537,801 528,900 509,937 490,974 455,993 406,993 357,993 324,973 305,932 286,891 276,794 276,641 L 276,0 109,0 109,1120 276,1120 276,1024 C 298,1064 326,1095 359,1116 392,1137 429,1147 471,1147 522,1147 564,1135 598,1112 631,1089 657,1053 676,1006 Z"/>
   <glyph unicode="l" horiz-adv-x="874" d="M 639,406 C 639,323 654,261 685,219 715,177 760,156 819,156 L 1034,156 1034,0 801,0 C 691,0 606,35 546,106 485,177 455,277 455,406 L 455,1423 160,1423 160,1567 639,1567 639,406 Z"/>
   <glyph unicode="k" horiz-adv-x="1006" d="M 236,1556 L 426,1556 426,655 909,1120 1133,1120 692,698 1202,0 977,0 563,578 426,449 426,0 236,0 236,1556 Z"/>
   <glyph unicode="i" horiz-adv-x="953" d="M 256,1120 L 727,1120 727,143 1092,143 1092,0 178,0 178,143 543,143 543,977 256,977 256,1120 Z M 543,1556 L 727,1556 727,1323 543,1323 543,1556 Z"/>
   <glyph unicode="h" horiz-adv-x="874" d="M 1051,694 L 1051,0 866,0 866,694 C 866,795 848,869 813,916 778,963 722,987 647,987 561,987 495,957 449,896 402,835 379,747 379,633 L 379,0 195,0 195,1556 379,1556 379,952 C 412,1016 456,1065 512,1098 568,1131 634,1147 711,1147 825,1147 910,1110 967,1035 1023,960 1051,846 1051,694 Z"/>
   <glyph unicode="g" horiz-adv-x="953" d="M 858,569 C 858,707 836,812 791,884 746,955 680,991 594,991 504,991 435,955 388,884 341,812 317,707 317,569 317,431 341,326 389,254 436,181 505,145 596,145 681,145 746,181 791,254 836,327 858,432 858,569 Z M 1042,72 C 1042,-96 1002,-223 923,-310 844,-397 727,-440 573,-440 522,-440 469,-435 414,-426 359,-417 303,-403 248,-385 L 248,-203 C 313,-234 373,-256 426,-271 479,-286 528,-293 573,-293 672,-293 745,-266 790,-212 835,-158 858,-72 858,45 L 858,53 858,178 C 829,115 789,69 738,38 687,7 626,-8 553,-8 422,-8 318,44 240,149 162,254 123,394 123,569 123,745 162,885 240,990 318,1095 422,1147 553,1147 625,1147 686,1133 736,1104 786,1075 827,1031 858,971 L 858,1116 1042,1116 1042,72 Z"/>
   <glyph unicode="e" horiz-adv-x="1006" d="M 1112,606 L 1112,516 315,516 315,510 C 315,388 347,294 411,227 474,160 564,127 680,127 739,127 800,136 864,155 928,174 996,202 1069,240 L 1069,57 C 999,28 932,7 867,-8 802,-22 739,-29 678,-29 504,-29 368,23 270,128 172,232 123,376 123,559 123,738 171,880 267,987 363,1094 491,1147 651,1147 794,1147 906,1099 989,1002 1071,905 1112,773 1112,606 Z M 928,659 C 925,767 900,850 852,906 803,963 734,991 643,991 554,991 481,962 424,903 367,844 333,763 322,659 L 928,659 Z"/>
   <glyph unicode="d" horiz-adv-x="953" d="M 858,977 L 858,1556 1042,1556 1042,0 858,0 858,141 C 827,86 787,44 736,15 685,-14 626,-29 559,-29 424,-29 317,24 240,129 162,234 123,378 123,563 123,745 162,888 240,992 318,1095 424,1147 559,1147 626,1147 686,1133 737,1104 788,1075 829,1032 858,977 Z M 317,559 C 317,416 340,309 385,236 430,163 497,127 586,127 675,127 742,164 789,237 835,310 858,418 858,559 858,701 835,809 789,882 742,955 675,991 586,991 497,991 430,955 385,882 340,809 317,702 317,559 Z"/>
   <glyph unicode="c" horiz-adv-x="874" d="M 1061,57 C 1012,28 961,7 909,-8 856,-22 803,-29 748,-29 575,-29 439,23 342,127 244,231 195,375 195,559 195,743 244,887 342,991 439,1095 575,1147 748,1147 802,1147 855,1140 906,1126 957,1112 1009,1090 1061,1061 L 1061,868 C 1012,911 964,943 915,962 866,981 810,991 748,991 633,991 544,954 482,879 420,804 389,698 389,559 389,421 420,315 483,240 545,165 633,127 748,127 812,127 869,137 920,157 971,176 1018,207 1061,248 L 1061,57 Z"/>
   <glyph unicode="b" horiz-adv-x="927" d="M 918,559 C 918,702 895,809 850,882 805,955 738,991 649,991 560,991 492,955 446,882 400,809 377,701 377,559 377,418 400,310 446,237 492,164 560,127 649,127 738,127 805,163 850,236 895,309 918,416 918,559 Z M 377,977 C 406,1032 447,1074 499,1103 550,1132 610,1147 678,1147 813,1147 919,1095 996,992 1073,888 1112,745 1112,563 1112,378 1073,234 996,129 918,24 811,-29 676,-29 609,-29 551,-14 500,15 449,44 408,86 377,141 L 377,0 193,0 193,1556 377,1556 377,977 Z"/>
   <glyph unicode="a" horiz-adv-x="927" d="M 702,563 L 641,563 C 534,563 453,544 399,507 344,469 317,413 317,338 317,271 337,218 378,181 419,144 475,125 547,125 648,125 728,160 786,231 844,301 873,398 874,522 L 874,563 702,563 Z M 1059,639 L 1059,0 874,0 874,166 C 835,99 785,50 726,19 666,-13 593,-29 508,-29 394,-29 303,3 235,68 167,132 133,218 133,326 133,451 175,545 259,610 342,675 465,707 627,707 L 874,707 874,736 C 873,825 851,890 806,931 761,971 690,991 592,991 529,991 466,982 402,964 338,946 276,920 215,885 L 215,1069 C 283,1095 348,1115 411,1128 473,1141 533,1147 592,1147 685,1147 764,1133 830,1106 895,1079 948,1038 989,983 1014,950 1032,909 1043,860 1054,811 1059,737 1059,639 Z"/>
   <glyph unicode="W" horiz-adv-x="1245" d="M 0,1493 L 197,1493 340,281 510,1083 721,1083 893,279 1036,1493 1233,1493 1010,0 819,0 616,887 414,0 223,0 0,1493 Z"/>
   <glyph unicode="U" horiz-adv-x="954" d="M 147,573 L 147,1493 350,1493 350,481 C 350,408 352,357 356,326 360,295 367,271 377,254 398,215 429,185 470,165 510,145 559,135 616,135 674,135 723,145 763,165 803,185 834,215 856,254 866,271 873,294 877,325 881,356 883,407 883,479 L 883,1493 1085,1493 1085,573 C 1085,420 1076,312 1057,248 1038,183 1005,130 958,88 914,49 864,19 807,0 750,-19 687,-29 616,-29 546,-29 483,-19 426,0 369,19 319,49 274,88 228,129 195,183 176,249 157,314 147,422 147,573 Z"/>
   <glyph unicode="T" horiz-adv-x="1166" d="M 47,1493 L 1186,1493 1186,1323 719,1323 719,0 516,0 516,1323 47,1323 47,1493 Z"/>
   <glyph unicode="S" horiz-adv-x="980" d="M 1012,1442 L 1012,1237 C 951,1276 889,1306 828,1326 766,1346 704,1356 641,1356 546,1356 470,1334 415,1290 360,1245 332,1185 332,1110 332,1044 350,994 387,959 423,924 491,895 590,872 L 696,848 C 836,815 938,764 1002,694 1066,624 1098,529 1098,408 1098,266 1054,158 966,83 878,8 750,-29 582,-29 512,-29 442,-21 371,-7 300,9 229,31 158,61 L 158,276 C 235,227 307,192 376,169 444,146 513,135 582,135 684,135 763,158 820,204 877,249 905,313 905,395 905,470 886,527 847,566 808,605 740,636 643,657 L 535,682 C 396,713 296,761 233,824 170,887 139,972 139,1079 139,1212 184,1319 274,1400 363,1480 482,1520 631,1520 688,1520 749,1514 812,1501 875,1488 942,1468 1012,1442 Z"/>
   <glyph unicode="R" horiz-adv-x="1113" d="M 760,705 C 812,692 856,667 893,630 930,593 975,519 1030,408 L 1233,0 1016,0 838,377 C 787,484 741,554 700,585 659,616 605,631 539,631 L 346,631 346,0 143,0 143,1493 559,1493 C 723,1493 849,1456 936,1382 1023,1308 1067,1201 1067,1061 1067,962 1040,882 987,820 933,757 857,719 760,705 Z M 346,1327 L 346,797 567,797 C 664,797 736,819 783,862 830,905 854,972 854,1061 854,1147 829,1213 779,1259 728,1304 655,1327 559,1327 L 346,1327 Z"/>
   <glyph unicode="Q" horiz-adv-x="1006" d="M 655,-28 C 650,-28 644,-28 635,-28 626,-28 619,-28 614,-28 447,-28 323,36 241,164 158,292 117,486 117,746 117,1006 158,1200 241,1328 323,1456 448,1520 616,1520 785,1520 910,1456 993,1328 1075,1200 1116,1006 1116,745 1116,549 1093,391 1048,272 1002,152 933,68 840,20 L 1040,-170 889,-270 655,-28 Z M 905,745 C 905,964 883,1121 838,1215 793,1309 719,1356 616,1356 514,1356 441,1309 396,1215 351,1121 328,964 328,745 328,526 351,370 396,276 441,182 514,135 616,135 719,135 793,182 838,276 883,369 905,526 905,745 Z"/>
   <glyph unicode="P" horiz-adv-x="954" d="M 399,1327 L 399,766 633,766 C 726,766 799,791 852,840 904,889 930,958 930,1047 930,1136 904,1205 852,1254 800,1303 727,1327 633,1327 L 399,1327 Z M 197,1493 L 633,1493 C 800,1493 926,1455 1012,1380 1098,1304 1141,1193 1141,1047 1141,900 1098,788 1013,713 927,638 800,600 633,600 L 399,600 399,0 197,0 197,1493 Z"/>
   <glyph unicode="O" horiz-adv-x="1006" d="M 905,745 C 905,964 883,1121 838,1215 793,1309 719,1356 616,1356 514,1356 441,1309 396,1215 351,1121 328,964 328,745 328,526 351,370 396,276 441,182 514,135 616,135 719,135 793,182 838,276 883,369 905,526 905,745 Z M 1116,745 C 1116,485 1075,291 993,163 910,35 785,-29 616,-29 447,-29 322,35 240,162 158,289 117,484 117,745 117,1006 158,1200 241,1328 323,1456 448,1520 616,1520 785,1520 910,1456 993,1328 1075,1200 1116,1006 1116,745 Z"/>
   <glyph unicode="N" horiz-adv-x="980" d="M 139,1493 L 395,1493 899,264 899,1493 1094,1493 1094,0 838,0 334,1229 334,0 139,0 139,1493 Z"/>
   <glyph unicode="M" horiz-adv-x="1086" d="M 86,1493 L 356,1493 614,733 874,1493 1145,1493 1145,0 958,0 958,1319 692,532 539,532 272,1319 272,0 86,0 86,1493 Z"/>
   <glyph unicode="L" horiz-adv-x="927" d="M 215,1493 L 418,1493 418,170 1139,170 1139,0 215,0 215,1493 Z"/>
   <glyph unicode="K" horiz-adv-x="1113" d="M 137,1493 L 340,1493 340,829 971,1493 1208,1493 627,883 1225,0 981,0 494,748 340,584 340,0 137,0 137,1493 Z"/>
   <glyph unicode="J" horiz-adv-x="848" d="M 109,61 L 109,297 C 170,243 232,203 297,176 362,149 429,135 498,135 593,135 660,160 698,210 735,259 754,352 754,487 L 754,1323 373,1323 373,1493 956,1493 956,487 C 956,299 921,166 851,88 780,10 663,-29 498,-29 434,-29 370,-22 307,-7 244,8 178,30 109,61 Z"/>
   <glyph unicode="I" horiz-adv-x="848" d="M 201,1493 L 1030,1493 1030,1323 717,1323 717,170 1030,170 1030,0 201,0 201,170 514,170 514,1323 201,1323 201,1493 Z"/>
   <glyph unicode="H" horiz-adv-x="980" d="M 137,1493 L 340,1493 340,881 893,881 893,1493 1096,1493 1096,0 893,0 893,711 340,711 340,0 137,0 137,1493 Z"/>
   <glyph unicode="G" horiz-adv-x="1033" d="M 1104,123 C 1050,73 989,35 922,10 854,-16 781,-29 702,-29 513,-29 365,39 260,175 155,310 102,500 102,745 102,989 155,1179 262,1316 369,1452 517,1520 707,1520 770,1520 830,1511 887,1494 944,1476 1000,1449 1053,1413 L 1053,1206 C 999,1257 944,1295 887,1320 830,1344 770,1356 707,1356 576,1356 477,1305 412,1204 346,1102 313,949 313,745 313,538 345,384 409,285 472,185 570,135 702,135 747,135 786,140 820,151 853,161 884,177 911,199 L 911,600 694,600 694,766 1104,766 1104,123 Z"/>
   <glyph unicode="E" horiz-adv-x="927" d="M 197,1493 L 1083,1493 1083,1323 399,1323 399,881 1053,881 1053,711 399,711 399,170 1102,170 1102,0 197,0 197,1493 Z"/>
   <glyph unicode="D" horiz-adv-x="980" d="M 436,166 C 606,166 725,208 792,292 859,375 893,526 893,745 893,966 860,1118 793,1202 726,1285 607,1327 436,1327 L 340,1327 340,166 436,166 Z M 440,1493 C 668,1493 836,1432 944,1311 1052,1190 1106,1001 1106,745 1106,490 1052,303 944,182 836,61 668,0 440,0 L 137,0 137,1493 440,1493 Z"/>
   <glyph unicode="B" horiz-adv-x="980" d="M 369,713 L 369,166 608,166 C 725,166 809,187 859,228 909,269 934,336 934,430 934,527 908,599 855,645 802,690 720,713 608,713 L 369,713 Z M 369,1327 L 369,877 604,877 C 701,877 772,896 816,933 859,970 881,1031 881,1114 881,1189 860,1244 817,1277 774,1310 703,1327 604,1327 L 369,1327 Z M 166,1493 L 608,1493 C 761,1493 878,1460 961,1394 1044,1328 1085,1235 1085,1114 1085,1023 1063,951 1020,898 976,845 910,812 823,799 921,784 998,743 1054,674 1109,605 1137,517 1137,410 1137,275 1093,173 1004,104 915,35 783,0 608,0 L 166,0 166,1493 Z"/>
   <glyph unicode="A" horiz-adv-x="1166" d="M 616,1315 L 403,551 829,551 616,1315 Z M 494,1493 L 739,1493 1196,0 987,0 877,389 354,389 246,0 37,0 494,1493 Z"/>
   <glyph unicode=":" horiz-adv-x="266" d="M 489,1063 L 741,1063 741,760 489,760 489,1063 Z M 489,305 L 741,305 741,0 489,0 489,305 Z"/>
   <glyph unicode="6" horiz-adv-x="980" d="M 991,1460 L 991,1274 C 949,1299 904,1318 857,1331 810,1344 760,1350 709,1350 581,1350 484,1302 418,1206 352,1109 319,967 319,780 351,847 395,898 452,934 509,969 574,987 647,987 791,987 903,943 982,855 1061,766 1100,641 1100,479 1100,318 1059,193 978,104 897,15 782,-29 635,-29 462,-29 335,33 254,158 173,282 133,478 133,745 133,997 182,1189 279,1322 376,1454 516,1520 700,1520 749,1520 799,1515 848,1505 897,1494 945,1479 991,1460 Z M 631,829 C 545,829 477,798 428,736 379,674 354,588 354,479 354,370 379,284 428,222 477,160 545,129 631,129 720,129 788,159 833,218 878,277 901,364 901,479 901,595 878,682 833,741 788,800 720,829 631,829 Z"/>
   <glyph unicode="5" horiz-adv-x="954" d="M 207,1493 L 963,1493 963,1323 391,1323 391,956 C 420,967 449,975 478,980 507,985 536,987 565,987 720,987 842,941 933,850 1024,759 1069,635 1069,479 1069,322 1022,198 927,107 832,16 702,-29 537,-29 458,-29 385,-24 320,-13 254,-2 195,14 143,35 L 143,240 C 204,207 266,182 328,166 390,149 453,141 518,141 629,141 715,170 776,229 836,288 866,371 866,479 866,586 835,669 773,728 710,787 623,817 512,817 458,817 405,811 354,799 303,786 254,768 207,743 L 207,1493 Z"/>
   <glyph unicode="3" horiz-adv-x="954" d="M 776,799 C 874,773 949,727 1001,661 1053,594 1079,511 1079,412 1079,275 1033,167 941,89 848,10 720,-29 557,-29 488,-29 418,-23 347,-10 276,3 206,21 137,45 L 137,246 C 205,211 272,184 338,167 404,150 470,141 535,141 646,141 731,166 790,216 849,266 879,338 879,432 879,519 849,588 790,639 731,690 650,715 549,715 L 395,715 395,881 549,881 C 642,881 714,901 766,942 818,983 844,1039 844,1112 844,1189 820,1248 772,1289 723,1330 654,1350 565,1350 506,1350 444,1343 381,1330 318,1317 251,1297 182,1270 L 182,1456 C 263,1477 335,1493 398,1504 461,1515 516,1520 565,1520 710,1520 827,1484 914,1411 1001,1338 1044,1241 1044,1120 1044,1038 1021,970 976,915 930,860 863,822 776,799 Z"/>
   <glyph unicode="1" horiz-adv-x="874" d="M 270,170 L 584,170 584,1311 246,1235 246,1419 582,1493 784,1493 784,170 1094,170 1094,0 270,0 270,170 Z"/>
   <glyph unicode="0" horiz-adv-x="980" d="M 483,750 C 483,787 496,818 522,845 547,872 578,885 614,885 651,885 683,872 710,845 737,818 750,787 750,750 750,713 737,681 711,655 684,629 652,616 614,616 577,616 546,629 521,654 496,679 483,711 483,750 Z M 616,1360 C 522,1360 452,1309 406,1208 359,1107 336,952 336,745 336,538 359,384 406,283 452,182 522,131 616,131 711,131 781,182 828,283 874,384 897,538 897,745 897,952 874,1107 828,1208 781,1309 711,1360 616,1360 Z M 616,1520 C 775,1520 896,1455 978,1324 1059,1193 1100,1000 1100,745 1100,490 1059,298 978,167 896,36 775,-29 616,-29 457,-29 336,36 255,167 174,298 133,490 133,745 133,1000 174,1193 255,1324 336,1455 457,1520 616,1520 Z"/>
  </font>
 </defs>
 <defs class="TextShapeIndex">
  <g ooo:slide="id1" ooo:id-list="id3 id4 id5 id6 id7 id8 id9 id10 id11 id12 id13 id14 id15 id16 id17 id18 id19 id20 id21 id22 id23 id24 id25 id26 id27 id28 id29 id30 id31 id32 id33 id34 id35 id36 id37 id38 id39 id40 id41 id42 id43 id44 id45 id46 id47 id48 id49 id50 id51 id52 id53 id54 id55 id56 id57 id58"/>
 </defs>
 <defs class="EmbeddedBulletChars">
  <g id="bullet-char-template-57356" transform="scale(0.00048828125,-0.00048828125)">
   <path d="M 580,1141 L 1163,571 580,0 -4,571 580,1141 Z"/>
  </g>
  <g id="bullet-char-template-57354" transform="scale(0.00048828125,-0.00048828125)">
   <path d="M 8,1128 L 1137,1128 1137,0 8,0 8,1128 Z"/>
  </g>
  <g id="bullet-char-template-10146" transform="scale(0.00048828125,-0.00048828125)">
   <path d="M 174,0 L 602,739 174,1481 1456,739 174,0 Z M 1358,739 L 309,1346 659,739 1358,739 Z"/>
  </g>
  <g id="bullet-char-template-10132" transform="scale(0.00048828125,-0.00048828125)">
   <path d="M 2015,739 L 1276,0 717,0 1260,543 174,543 174,936 1260,936 717,1481 1274,1481 2015,739 Z"/>
  </g>
  <g id="bullet-char-template-10007" transform="scale(0.00048828125,-0.00048828125)">
   <path d="M 0,-2 C -7,14 -16,27 -25,37 L 356,567 C 262,823 215,952 215,954 215,979 228,992 255,992 264,992 276,990 289,987 310,991 331,999 354,1012 L 381,999 492,748 772,1049 836,1024 860,1049 C 881,1039 901,1025 922,1006 886,937 835,863 770,784 769,783 710,716 594,584 L 774,223 C 774,196 753,168 711,139 L 727,119 C 717,90 699,76 672,76 641,76 570,178 457,381 L 164,-76 C 142,-110 111,-127 72,-127 30,-127 9,-110 8,-76 1,-67 -2,-52 -2,-32 -2,-23 -1,-13 0,-2 Z"/>
  </g>
  <g id="bullet-char-template-10004" transform="scale(0.00048828125,-0.00048828125)">
   <path d="M 285,-33 C 182,-33 111,30 74,156 52,228 41,333 41,471 41,549 55,616 82,672 116,743 169,778 240,778 293,778 328,747 346,684 L 369,508 C 377,444 397,411 428,410 L 1163,1116 C 1174,1127 1196,1133 1229,1133 1271,1133 1292,1118 1292,1087 L 1292,965 C 1292,929 1282,901 1262,881 L 442,47 C 390,-6 338,-33 285,-33 Z"/>
  </g>
  <g id="bullet-char-template-9679" transform="scale(0.00048828125,-0.00048828125)">
   <path d="M 813,0 C 632,0 489,54 383,161 276,268 223,411 223,592 223,773 276,916 383,1023 489,1130 632,1184 813,1184 992,1184 1136,1130 1245,1023 1353,916 1407,772 1407,592 1407,412 1353,268 1245,161 1136,54 992,0 813,0 Z"/>
  </g>
  <g id="bullet-char-template-8226" transform="scale(0.00048828125,-0.00048828125)">
   <path d="M 346,457 C 273,457 209,483 155,535 101,586 74,649 74,723 74,796 101,859 155,911 209,963 273,989 346,989 419,989 480,963 531,910 582,859 608,796 608,723 608,648 583,586 532,535 482,483 420,457 346,457 Z"/>
  </g>
  <g id="bullet-char-template-8211" transform="scale(0.00048828125,-0.00048828125)">
   <path d="M -4,459 L 1135,459 1135,606 -4,606 -4,459 Z"/>
  </g>
  <g id="bullet-char-template-61548" transform="scale(0.00048828125,-0.00048828125)">
   <path d="M 173,740 C 173,903 231,1043 346,1159 462,1274 601,1332 765,1332 928,1332 1067,1274 1183,1159 1299,1043 1357,903 1357,740 1357,577 1299,437 1183,322 1067,206 928,148 765,148 601,148 462,206 346,322 231,437 173,577 173,740 Z"/>
  </g>
 </defs>
 <defs class="TextEmbeddedBitmaps"/>
 <g>
  <g id="id2" class="Master_Slide">
   <g id="bg-id2" class="Background"/>
   <g id="bo-id2" class="BackgroundObjects"/>
  </g>
 </g>
 <g class="SlideGroup">
  <g>
   <g id="container-id1">
    <g id="id1" class="Slide" clip-path="url(#presentation_clip_path)">
     <g class="Page">
      <g class="com.sun.star.drawing.CustomShape">
       <g id="id3">
        <rect class="BoundingBox" stroke="none" fill="none" x="7665" y="9418" width="3052" height="1909"/>
        <path fill="rgb(238,238,238)" stroke="none" d="M 7666,9643 C 7666,9531 7845,9419 8024,9419 L 10356,9419 C 10535,9419 10715,9531 10715,9643 L 10715,11100 C 10715,11212 10535,11325 10356,11325 L 8024,11325 C 7845,11325 7666,11212 7666,11100 L 7666,9643 Z"/>
        <path fill="none" stroke="rgb(52,101,164)" d="M 7666,9643 C 7666,9531 7845,9419 8024,9419 L 10356,9419 C 10535,9419 10715,9531 10715,9643 L 10715,11100 C 10715,11212 10535,11325 10356,11325 L 8024,11325 C 7845,11325 7666,11212 7666,11100 L 7666,9643 Z"/>
        <text class="TextShape"><tspan class="TextParagraph" font-family="monospace, monospace" font-size="388px" font-weight="400"><tspan class="TextPosition" x="8375" y="10279"><tspan fill="rgb(0,0,0)" stroke="none">Process</tspan></tspan></tspan><tspan class="TextParagraph" font-family="monospace, monospace" font-size="388px" font-weight="400"><tspan class="TextPosition" x="8492" y="10732"><tspan fill="rgb(0,0,0)" stroke="none">Device</tspan></tspan></tspan></text>
       </g>
      </g>
      <g class="com.sun.star.drawing.CustomShape">
       <g id="id4">
        <rect class="BoundingBox" stroke="none" fill="none" x="7029" y="9419" width="638" height="1908"/>
        <path fill="rgb(238,238,238)" stroke="none" d="M 7665,10373 L 7665,11325 7030,11325 7030,9420 7665,9420 7665,10373 Z"/>
        <path fill="none" stroke="rgb(52,101,164)" d="M 7665,10373 L 7665,11325 7030,11325 7030,9420 7665,9420 7665,10373 Z"/>
        <text class="TextShape" transform="rotate(-90 7481 11073)"><tspan class="TextParagraph" font-family="monospace, monospace" font-size="388px" font-weight="400"><tspan class="TextPosition" x="7481" y="11073"><tspan fill="rgb(0,0,0)" stroke="none">ROUTER</tspan></tspan></tspan></text>
       </g>
      </g>
      <g class="com.sun.star.drawing.CustomShape">
       <g id="id5">
        <rect class="BoundingBox" stroke="none" fill="none" x="10712" y="9417" width="638" height="1908"/>
        <path fill="rgb(238,238,238)" stroke="none" d="M 10713,10371 L 10713,9418 11348,9418 11348,11323 10713,11323 10713,10371 Z"/>
        <path fill="none" stroke="rgb(52,101,164)" d="M 10713,10371 L 10713,9418 11348,9418 11348,11323 10713,11323 10713,10371 Z"/>
        <text class="TextShape" transform="rotate(89.9 10898 9672)"><tspan class="TextParagraph" font-family="monospace, monospace" font-size="388px" font-weight="400"><tspan class="TextPosition" x="10898" y="9672"><tspan fill="rgb(0,0,0)" stroke="none">DEALER</tspan></tspan></tspan></text>
       </g>
      </g>
      <g class="com.sun.star.drawing.CustomShape">
       <g id="id6">
        <rect class="BoundingBox" stroke="none" fill="none" x="7604" y="5698" width="3052" height="1909"/>
        <path fill="rgb(204,204,204)" stroke="none" d="M 7605,5923 C 7605,5811 7784,5699 7963,5699 L 10295,5699 C 10474,5699 10654,5811 10654,5923 L 10654,7380 C 10654,7492 10474,7605 10295,7605 L 7963,7605 C 7784,7605 7605,7492 7605,7380 L 7605,5923 Z"/>
        <path fill="none" stroke="rgb(52,101,164)" d="M 7605,5923 C 7605,5811 7784,5699 7963,5699 L 10295,5699 C 10474,5699 10654,5811 10654,5923 L 10654,7380 C 10654,7492 10474,7605 10295,7605 L 7963,7605 C 7784,7605 7605,7492 7605,7380 L 7605,5923 Z"/>
        <text class="TextShape"><tspan class="TextParagraph" font-family="monospace, monospace" font-size="388px" font-weight="400"><tspan class="TextPosition" x="8547" y="6559"><tspan fill="rgb(0,0,0)" stroke="none">State</tspan></tspan></tspan><tspan class="TextParagraph" font-family="monospace, monospace" font-size="388px" font-weight="400"><tspan class="TextPosition" x="8314" y="7012"><tspan fill="rgb(0,0,0)" stroke="none">Updater</tspan></tspan></tspan></text>
       </g>
      </g>
      <g class="com.sun.star.drawing.CustomShape">
       <g id="id7">
        <rect class="BoundingBox" stroke="none" fill="none" x="6968" y="5699" width="638" height="1908"/>
        <path fill="rgb(204,204,204)" stroke="none" d="M 7604,6653 L 7604,7605 6969,7605 6969,5700 7604,5700 7604,6653 Z"/>
        <path fill="none" stroke="rgb(52,101,164)" d="M 7604,6653 L 7604,7605 6969,7605 6969,5700 7604,5700 7604,6653 Z"/>
        <text class="TextShape" transform="rotate(-90 7420 7353)"><tspan class="TextParagraph" font-family="monospace, monospace" font-size="388px" font-weight="400"><tspan class="TextPosition" x="7420" y="7353"><tspan fill="rgb(0,0,0)" stroke="none">DEALER</tspan></tspan></tspan></text>
       </g>
      </g>
      <g class="com.sun.star.drawing.CustomShape">
       <g id="id8">
        <rect class="BoundingBox" stroke="none" fill="none" x="13360" y="9418" width="3052" height="1909"/>
        <path fill="rgb(204,204,204)" stroke="none" d="M 13361,9643 C 13361,9531 13540,9419 13719,9419 L 16051,9419 C 16230,9419 16410,9531 16410,9643 L 16410,11100 C 16410,11212 16230,11325 16051,11325 L 13719,11325 C 13540,11325 13361,11212 13361,11100 L 13361,9643 Z"/>
        <path fill="none" stroke="rgb(52,101,164)" d="M 13361,9643 C 13361,9531 13540,9419 13719,9419 L 16051,9419 C 16230,9419 16410,9531 16410,9643 L 16410,11100 C 16410,11212 16230,11325 16051,11325 L 13719,11325 C 13540,11325 13361,11212 13361,11100 L 13361,9643 Z"/>
        <text class="TextShape"><tspan class="TextParagraph" font-family="monospace, monospace" font-size="388px" font-weight="400"><tspan class="TextPosition" x="13954" y="10279"><tspan fill="rgb(0,0,0)" stroke="none">Resource</tspan></tspan></tspan><tspan class="TextParagraph" font-family="monospace, monospace" font-size="388px" font-weight="400"><tspan class="TextPosition" x="14187" y="10732"><tspan fill="rgb(0,0,0)" stroke="none">Worker</tspan></tspan></tspan></text>
       </g>
      </g>
      <g class="com.sun.star.drawing.CustomShape">
       <g id="id9">
        <rect class="BoundingBox" stroke="none" fill="none" x="12724" y="9419" width="638" height="1908"/>
        <path fill="rgb(204,204,204)" stroke="none" d="M 13360,10373 L 13360,11325 12725,11325 12725,9420 13360,9420 13360,10373 Z"/>
        <path fill="none" stroke="rgb(52,101,164)" d="M 13360,10373 L 13360,11325 12725,11325 12725,9420 13360,9420 13360,10373 Z"/>
        <text class="TextShape" transform="rotate(-90 13176 11073)"><tspan class="TextParagraph" font-family="monospace, monospace" font-size="388px" font-weight="400"><tspan class="TextPosition" x="13176" y="11073"><tspan fill="rgb(0,0,0)" stroke="none">DEALER</tspan></tspan></tspan></text>
       </g>
      </g>
      <g class="com.sun.star.drawing.CustomShape">
       <g id="id10">
        <rect class="BoundingBox" stroke="none" fill="none" x="16407" y="9417" width="638" height="1908"/>
        <path fill="rgb(204,204,204)" stroke="none" d="M 16408,10371 L 16408,9418 17043,9418 17043,11323 16408,11323 16408,10371 Z"/>
        <path fill="none" stroke="rgb(52,101,164)" d="M 16408,10371 L 16408,9418 17043,9418 17043,11323 16408,11323 16408,10371 Z"/>
        <text class="TextShape" transform="rotate(89.9 16593 10021)"><tspan class="TextParagraph" font-family="monospace, monospace" font-size="388px" font-weight="400"><tspan class="TextPosition" x="16593" y="10021"><tspan fill="rgb(0,0,0)" stroke="none">REQ</tspan></tspan></tspan></text>
       </g>
      </g>
      <g class="com.sun.star.drawing.CustomShape">
       <g id="id11">
        <rect class="BoundingBox" stroke="none" fill="none" x="1785" y="10943" width="3052" height="1909"/>
        <path fill="rgb(204,204,204)" stroke="none" d="M 1786,11168 C 1786,11056 1965,10944 2144,10944 L 4476,10944 C 4655,10944 4835,11056 4835,11168 L 4835,12625 C 4835,12737 4655,12850 4476,12850 L 2144,12850 C 1965,12850 1786,12737 1786,12625 L 1786,11168 Z"/>
        <path fill="none" stroke="rgb(52,101,164)" d="M 1786,11168 C 1786,11056 1965,10944 2144,10944 L 4476,10944 C 4655,10944 4835,11056 4835,11168 L 4835,12625 C 4835,12737 4655,12850 4476,12850 L 2144,12850 C 1965,12850 1786,12737 1786,12625 L 1786,11168 Z"/>
        <text class="TextShape"><tspan class="TextParagraph" font-family="monospace, monospace" font-size="388px" font-weight="400"><tspan class="TextPosition" x="2379" y="12030"><tspan fill="rgb(0,0,0)" stroke="none">Ironbase</tspan></tspan></tspan></text>
       </g>
      </g>
      <g class="com.sun.star.drawing.CustomShape">
       <g id="id12">
        <rect class="BoundingBox" stroke="none" fill="none" x="1149" y="10944" width="638" height="1908"/>
        <path fill="rgb(255,212,40)" stroke="none" d="M 1785,11898 L 1785,12850 1150,12850 1150,10945 1785,10945 1785,11898 Z"/>
        <path fill="none" stroke="rgb(52,101,164)" d="M 1785,11898 L 1785,12850 1150,12850 1150,10945 1785,10945 1785,11898 Z"/>
        <text class="TextShape" transform="rotate(-90 1601 12598)"><tspan class="TextParagraph" font-family="monospace, monospace" font-size="388px" font-weight="400"><tspan class="TextPosition" x="1601" y="12598"><tspan fill="rgb(0,0,0)" stroke="none">ROUTER</tspan></tspan></tspan></text>
       </g>
      </g>
      <g class="com.sun.star.drawing.CustomShape">
       <g id="id13">
        <rect class="BoundingBox" stroke="none" fill="none" x="4832" y="10942" width="638" height="1908"/>
        <path fill="rgb(204,204,204)" stroke="none" d="M 4833,11896 L 4833,10943 5468,10943 5468,12848 4833,12848 4833,11896 Z"/>
        <path fill="none" stroke="rgb(52,101,164)" d="M 4833,11896 L 4833,10943 5468,10943 5468,12848 4833,12848 4833,11896 Z"/>
        <text class="TextShape" transform="rotate(89.9 5018 11196)"><tspan class="TextParagraph" font-family="monospace, monospace" font-size="388px" font-weight="400"><tspan class="TextPosition" x="5018" y="11196"><tspan fill="rgb(0,0,0)" stroke="none">DEALER</tspan></tspan></tspan></text>
       </g>
      </g>
      <g class="com.sun.star.drawing.CustomShape">
       <g id="id14">
        <rect class="BoundingBox" stroke="none" fill="none" x="19287" y="4809" width="3052" height="1909"/>
        <path fill="rgb(204,204,204)" stroke="none" d="M 19288,5034 C 19288,4922 19467,4810 19646,4810 L 21978,4810 C 22157,4810 22337,4922 22337,5034 L 22337,6491 C 22337,6603 22157,6716 21978,6716 L 19646,6716 C 19467,6716 19288,6603 19288,6491 L 19288,5034 Z"/>
        <path fill="none" stroke="rgb(52,101,164)" d="M 19288,5034 C 19288,4922 19467,4810 19646,4810 L 21978,4810 C 22157,4810 22337,4922 22337,5034 L 22337,6491 C 22337,6603 22157,6716 21978,6716 L 19646,6716 C 19467,6716 19288,6603 19288,6491 L 19288,5034 Z"/>
        <text class="TextShape"><tspan class="TextParagraph" font-family="monospace, monospace" font-size="388px" font-weight="400"><tspan class="TextPosition" x="20347" y="5443"><tspan fill="rgb(0,0,0)" stroke="none">Data</tspan></tspan></tspan><tspan class="TextParagraph" font-family="monospace, monospace" font-size="388px" font-weight="400"><tspan class="TextPosition" x="20114" y="5896"><tspan fill="rgb(0,0,0)" stroke="none">Kernel</tspan></tspan></tspan><tspan class="TextParagraph" font-family="monospace, monospace" font-size="388px" font-weight="400"><tspan class="TextPosition" x="20230" y="6349"><tspan fill="rgb(0,0,0)" stroke="none">:6003</tspan></tspan></tspan></text>
       </g>
      </g>
      <g class="com.sun.star.drawing.CustomShape">
       <g id="id15">
        <rect class="BoundingBox" stroke="none" fill="none" x="18651" y="4810" width="638" height="1908"/>
        <path fill="rgb(204,204,204)" stroke="none" d="M 19287,5764 L 19287,6716 18652,6716 18652,4811 19287,4811 19287,5764 Z"/>
        <path fill="none" stroke="rgb(52,101,164)" d="M 19287,5764 L 19287,6716 18652,6716 18652,4811 19287,4811 19287,5764 Z"/>
        <text class="TextShape" transform="rotate(-90 19103 6231)"><tspan class="TextParagraph" font-family="monospace, monospace" font-size="388px" font-weight="400"><tspan class="TextPosition" x="19103" y="6231"><tspan fill="rgb(0,0,0)" stroke="none">PULL</tspan></tspan></tspan></text>
       </g>
      </g>
      <g class="com.sun.star.drawing.CustomShape">
       <g id="id16">
        <rect class="BoundingBox" stroke="none" fill="none" x="22334" y="4808" width="638" height="1908"/>
        <path fill="rgb(204,204,204)" stroke="none" d="M 22335,5762 L 22335,4809 22970,4809 22970,6714 22335,6714 22335,5762 Z"/>
        <path fill="none" stroke="rgb(52,101,164)" d="M 22335,5762 L 22335,4809 22970,4809 22970,6714 22335,6714 22335,5762 Z"/>
        <text class="TextShape" transform="rotate(89.9 22520 5296)"><tspan class="TextParagraph" font-family="monospace, monospace" font-size="388px" font-weight="400"><tspan class="TextPosition" x="22520" y="5296"><tspan fill="rgb(0,0,0)" stroke="none">PUSH</tspan></tspan></tspan></text>
       </g>
      </g>
      <g class="com.sun.star.drawing.CustomShape">
       <g id="id17">
        <rect class="BoundingBox" stroke="none" fill="none" x="1657" y="8021" width="3052" height="1909"/>
        <path fill="rgb(204,204,204)" stroke="none" d="M 1658,8246 C 1658,8134 1837,8022 2016,8022 L 4348,8022 C 4527,8022 4707,8134 4707,8246 L 4707,9703 C 4707,9815 4527,9928 4348,9928 L 2016,9928 C 1837,9928 1658,9815 1658,9703 L 1658,8246 Z"/>
        <path fill="none" stroke="rgb(52,101,164)" d="M 1658,8246 C 1658,8134 1837,8022 2016,8022 L 4348,8022 C 4527,8022 4707,8134 4707,8246 L 4707,9703 C 4707,9815 4527,9928 4348,9928 L 2016,9928 C 1837,9928 1658,9815 1658,9703 L 1658,8246 Z"/>
        <text class="TextShape"><tspan class="TextParagraph" font-family="monospace, monospace" font-size="388px" font-weight="400"><tspan class="TextPosition" x="2717" y="8655"><tspan fill="rgb(0,0,0)" stroke="none">Http</tspan></tspan></tspan><tspan class="TextParagraph" font-family="monospace, monospace" font-size="388px" font-weight="400"><tspan class="TextPosition" x="2833" y="9108"><tspan fill="rgb(0,0,0)" stroke="none">Api</tspan></tspan></tspan><tspan class="TextParagraph" font-family="monospace, monospace" font-size="388px" font-weight="400"><tspan class="TextPosition" x="2600" y="9561"><tspan fill="rgb(0,0,0)" stroke="none">:5555</tspan></tspan></tspan></text>
       </g>
      </g>
      <g class="com.sun.star.drawing.CustomShape">
       <g id="id18">
        <rect class="BoundingBox" stroke="none" fill="none" x="1021" y="8022" width="638" height="1908"/>
        <path fill="rgb(255,212,40)" stroke="none" d="M 1657,8976 L 1657,9928 1022,9928 1022,8023 1657,8023 1657,8976 Z"/>
        <path fill="none" stroke="rgb(52,101,164)" d="M 1657,8976 L 1657,9928 1022,9928 1022,8023 1657,8023 1657,8976 Z"/>
        <text class="TextShape" transform="rotate(-90 1473 9443)"><tspan class="TextParagraph" font-family="monospace, monospace" font-size="388px" font-weight="400"><tspan class="TextPosition" x="1473" y="9443"><tspan fill="rgb(0,0,0)" stroke="none">HTTP</tspan></tspan></tspan></text>
       </g>
      </g>
      <g class="com.sun.star.drawing.CustomShape">
       <g id="id19">
        <rect class="BoundingBox" stroke="none" fill="none" x="4704" y="8020" width="638" height="1908"/>
        <path fill="rgb(204,204,204)" stroke="none" d="M 4705,8974 L 4705,8021 5340,8021 5340,9926 4705,9926 4705,8974 Z"/>
        <path fill="none" stroke="rgb(52,101,164)" d="M 4705,8974 L 4705,8021 5340,8021 5340,9926 4705,9926 4705,8974 Z"/>
        <text class="TextShape" transform="rotate(89.9 4890 8275)"><tspan class="TextParagraph" font-family="monospace, monospace" font-size="388px" font-weight="400"><tspan class="TextPosition" x="4890" y="8275"><tspan fill="rgb(0,0,0)" stroke="none">DEALER</tspan></tspan></tspan></text>
       </g>
      </g>
      <g class="com.sun.star.drawing.CustomShape">
       <g id="id20">
        <rect class="BoundingBox" stroke="none" fill="none" x="24964" y="8021" width="3052" height="1909"/>
        <path fill="rgb(204,204,204)" stroke="none" d="M 24965,8246 C 24965,8134 25144,8022 25323,8022 L 27655,8022 C 27834,8022 28014,8134 28014,8246 L 28014,9703 C 28014,9815 27834,9928 27655,9928 L 25323,9928 C 25144,9928 24965,9815 24965,9703 L 24965,8246 Z"/>
        <path fill="none" stroke="rgb(52,101,164)" d="M 24965,8246 C 24965,8134 25144,8022 25323,8022 L 27655,8022 C 27834,8022 28014,8134 28014,8246 L 28014,9703 C 28014,9815 27834,9928 27655,9928 L 25323,9928 C 25144,9928 24965,9815 24965,9703 L 24965,8246 Z"/>
        <text class="TextShape"><tspan class="TextParagraph" font-family="monospace, monospace" font-size="388px" font-weight="400"><tspan class="TextPosition" x="25791" y="8882"><tspan fill="rgb(0,0,0)" stroke="none">Series</tspan></tspan></tspan><tspan class="TextParagraph" font-family="monospace, monospace" font-size="388px" font-weight="400"><tspan class="TextPosition" x="25674" y="9335"><tspan fill="rgb(0,0,0)" stroke="none">Storage</tspan></tspan></tspan></text>
       </g>
      </g>
      <g class="com.sun.star.drawing.CustomShape">
       <g id="id21">
        <rect class="BoundingBox" stroke="none" fill="none" x="24328" y="8022" width="638" height="1908"/>
        <path fill="rgb(204,204,204)" stroke="none" d="M 24964,8976 L 24964,9928 24329,9928 24329,8023 24964,8023 24964,8976 Z"/>
        <path fill="none" stroke="rgb(52,101,164)" d="M 24964,8976 L 24964,9928 24329,9928 24329,8023 24964,8023 24964,8976 Z"/>
        <text class="TextShape" transform="rotate(-90 24780 9327)"><tspan class="TextParagraph" font-family="monospace, monospace" font-size="388px" font-weight="400"><tspan class="TextPosition" x="24780" y="9327"><tspan fill="rgb(0,0,0)" stroke="none">REP</tspan></tspan></tspan></text>
       </g>
      </g>
      <g class="com.sun.star.drawing.CustomShape">
       <g id="id22">
        <rect class="BoundingBox" stroke="none" fill="none" x="28011" y="8020" width="638" height="1908"/>
        <path fill="rgb(255,212,40)" stroke="none" d="M 28012,8974 L 28012,8021 28647,8021 28647,9926 28012,9926 28012,8974 Z"/>
        <path fill="none" stroke="rgb(52,101,164)" d="M 28012,8974 L 28012,8021 28647,8021 28647,9926 28012,9926 28012,8974 Z"/>
        <text class="TextShape" transform="rotate(89.9 28197 8042)"><tspan class="TextParagraph" font-family="monospace, monospace" font-size="388px" font-weight="400"><tspan class="TextPosition" x="28197" y="8042"><tspan fill="rgb(0,0,0)" stroke="none">DATABASE</tspan></tspan></tspan></text>
       </g>
      </g>
      <g class="com.sun.star.drawing.CustomShape">
       <g id="id23">
        <rect class="BoundingBox" stroke="none" fill="none" x="24963" y="10943" width="3052" height="1909"/>
        <path fill="rgb(204,204,204)" stroke="none" d="M 24964,11168 C 24964,11056 25143,10944 25322,10944 L 27654,10944 C 27833,10944 28013,11056 28013,11168 L 28013,12625 C 28013,12737 27833,12850 27654,12850 L 25322,12850 C 25143,12850 24964,12737 24964,12625 L 24964,11168 Z"/>
        <path fill="none" stroke="rgb(52,101,164)" d="M 24964,11168 C 24964,11056 25143,10944 25322,10944 L 27654,10944 C 27833,10944 28013,11056 28013,11168 L 28013,12625 C 28013,12737 27833,12850 27654,12850 L 25322,12850 C 25143,12850 24964,12737 24964,12625 L 24964,11168 Z"/>
        <text class="TextShape"><tspan class="TextParagraph" font-family="monospace, monospace" font-size="388px" font-weight="400"><tspan class="TextPosition" x="26023" y="11804"><tspan fill="rgb(0,0,0)" stroke="none">JSON</tspan></tspan></tspan><tspan class="TextParagraph" font-family="monospace, monospace" font-size="388px" font-weight="400"><tspan class="TextPosition" x="25673" y="12257"><tspan fill="rgb(0,0,0)" stroke="none">Storage</tspan></tspan></tspan></text>
       </g>
      </g>
      <g class="com.sun.star.drawing.CustomShape">
       <g id="id24">
        <rect class="BoundingBox" stroke="none" fill="none" x="24327" y="10944" width="638" height="1908"/>
        <path fill="rgb(204,204,204)" stroke="none" d="M 24963,11898 L 24963,12850 24328,12850 24328,10945 24963,10945 24963,11898 Z"/>
        <path fill="none" stroke="rgb(52,101,164)" d="M 24963,11898 L 24963,12850 24328,12850 24328,10945 24963,10945 24963,11898 Z"/>
        <text class="TextShape" transform="rotate(-90 24779 12249)"><tspan class="TextParagraph" font-family="monospace, monospace" font-size="388px" font-weight="400"><tspan class="TextPosition" x="24779" y="12249"><tspan fill="rgb(0,0,0)" stroke="none">REP</tspan></tspan></tspan></text>
       </g>
      </g>
      <g class="com.sun.star.drawing.CustomShape">
       <g id="id25">
        <rect class="BoundingBox" stroke="none" fill="none" x="28010" y="10942" width="638" height="1908"/>
        <path fill="rgb(255,212,40)" stroke="none" d="M 28011,11896 L 28011,10943 28646,10943 28646,12848 28011,12848 28011,11896 Z"/>
        <path fill="none" stroke="rgb(52,101,164)" d="M 28011,11896 L 28011,10943 28646,10943 28646,12848 28011,12848 28011,11896 Z"/>
        <text class="TextShape" transform="rotate(89.9 28196 10964)"><tspan class="TextParagraph" font-family="monospace, monospace" font-size="388px" font-weight="400"><tspan class="TextPosition" x="28196" y="10964"><tspan fill="rgb(0,0,0)" stroke="none">DATABASE</tspan></tspan></tspan></text>
       </g>
      </g>
      <g class="com.sun.star.drawing.CustomShape">
       <g id="id26">
        <rect class="BoundingBox" stroke="none" fill="none" x="19248" y="8022" width="3052" height="1909"/>
        <path fill="rgb(238,238,238)" stroke="none" d="M 19249,8247 C 19249,8135 19428,8023 19607,8023 L 21939,8023 C 22118,8023 22298,8135 22298,8247 L 22298,9704 C 22298,9816 22118,9929 21939,9929 L 19607,9929 C 19428,9929 19249,9816 19249,9704 L 19249,8247 Z"/>
        <path fill="none" stroke="rgb(52,101,164)" d="M 19249,8247 C 19249,8135 19428,8023 19607,8023 L 21939,8023 C 22118,8023 22298,8135 22298,8247 L 22298,9704 C 22298,9816 22118,9929 21939,9929 L 19607,9929 C 19428,9929 19249,9816 19249,9704 L 19249,8247 Z"/>
        <text class="TextShape"><tspan class="TextParagraph" font-family="monospace, monospace" font-size="388px" font-weight="400"><tspan class="TextPosition" x="19958" y="8883"><tspan fill="rgb(0,0,0)" stroke="none">Process</tspan></tspan></tspan><tspan class="TextParagraph" font-family="monospace, monospace" font-size="388px" font-weight="400"><tspan class="TextPosition" x="20075" y="9336"><tspan fill="rgb(0,0,0)" stroke="none">Device</tspan></tspan></tspan></text>
       </g>
      </g>
      <g class="com.sun.star.drawing.CustomShape">
       <g id="id27">
        <rect class="BoundingBox" stroke="none" fill="none" x="18612" y="8023" width="638" height="1908"/>
        <path fill="rgb(238,238,238)" stroke="none" d="M 19248,8977 L 19248,9929 18613,9929 18613,8024 19248,8024 19248,8977 Z"/>
        <path fill="none" stroke="rgb(52,101,164)" d="M 19248,8977 L 19248,9929 18613,9929 18613,8024 19248,8024 19248,8977 Z"/>
        <text class="TextShape" transform="rotate(-90 19064 9677)"><tspan class="TextParagraph" font-family="monospace, monospace" font-size="388px" font-weight="400"><tspan class="TextPosition" x="19064" y="9677"><tspan fill="rgb(0,0,0)" stroke="none">ROUTER</tspan></tspan></tspan></text>
       </g>
      </g>
      <g class="com.sun.star.drawing.CustomShape">
       <g id="id28">
        <rect class="BoundingBox" stroke="none" fill="none" x="22295" y="8021" width="638" height="1908"/>
        <path fill="rgb(238,238,238)" stroke="none" d="M 22296,8975 L 22296,8022 22931,8022 22931,9927 22296,9927 22296,8975 Z"/>
        <path fill="none" stroke="rgb(52,101,164)" d="M 22296,8975 L 22296,8022 22931,8022 22931,9927 22296,9927 22296,8975 Z"/>
        <text class="TextShape" transform="rotate(89.9 22481 8276)"><tspan class="TextParagraph" font-family="monospace, monospace" font-size="388px" font-weight="400"><tspan class="TextPosition" x="22481" y="8276"><tspan fill="rgb(0,0,0)" stroke="none">DEALER</tspan></tspan></tspan></text>
       </g>
      </g>
      <g class="com.sun.star.drawing.CustomShape">
       <g id="id29">
        <rect class="BoundingBox" stroke="none" fill="none" x="19248" y="10942" width="3052" height="1909"/>
        <path fill="rgb(238,238,238)" stroke="none" d="M 19249,11167 C 19249,11055 19428,10943 19607,10943 L 21939,10943 C 22118,10943 22298,11055 22298,11167 L 22298,12624 C 22298,12736 22118,12849 21939,12849 L 19607,12849 C 19428,12849 19249,12736 19249,12624 L 19249,11167 Z"/>
        <path fill="none" stroke="rgb(52,101,164)" d="M 19249,11167 C 19249,11055 19428,10943 19607,10943 L 21939,10943 C 22118,10943 22298,11055 22298,11167 L 22298,12624 C 22298,12736 22118,12849 21939,12849 L 19607,12849 C 19428,12849 19249,12736 19249,12624 L 19249,11167 Z"/>
        <text class="TextShape"><tspan class="TextParagraph" font-family="monospace, monospace" font-size="388px" font-weight="400"><tspan class="TextPosition" x="19958" y="11803"><tspan fill="rgb(0,0,0)" stroke="none">Process</tspan></tspan></tspan><tspan class="TextParagraph" font-family="monospace, monospace" font-size="388px" font-weight="400"><tspan class="TextPosition" x="20075" y="12256"><tspan fill="rgb(0,0,0)" stroke="none">Device</tspan></tspan></tspan></text>
       </g>
      </g>
      <g class="com.sun.star.drawing.CustomShape">
       <g id="id30">
        <rect class="BoundingBox" stroke="none" fill="none" x="18612" y="10943" width="638" height="1908"/>
        <path fill="rgb(238,238,238)" stroke="none" d="M 19248,11897 L 19248,12849 18613,12849 18613,10944 19248,10944 19248,11897 Z"/>
        <path fill="none" stroke="rgb(52,101,164)" d="M 19248,11897 L 19248,12849 18613,12849 18613,10944 19248,10944 19248,11897 Z"/>
        <text class="TextShape" transform="rotate(-90 19064 12597)"><tspan class="TextParagraph" font-family="monospace, monospace" font-size="388px" font-weight="400"><tspan class="TextPosition" x="19064" y="12597"><tspan fill="rgb(0,0,0)" stroke="none">ROUTER</tspan></tspan></tspan></text>
       </g>
      </g>
      <g class="com.sun.star.drawing.CustomShape">
       <g id="id31">
        <rect class="BoundingBox" stroke="none" fill="none" x="22295" y="10941" width="638" height="1908"/>
        <path fill="rgb(238,238,238)" stroke="none" d="M 22296,11895 L 22296,10942 22931,10942 22931,12847 22296,12847 22296,11895 Z"/>
        <path fill="none" stroke="rgb(52,101,164)" d="M 22296,11895 L 22296,10942 22931,10942 22931,12847 22296,12847 22296,11895 Z"/>
        <text class="TextShape" transform="rotate(89.9 22481 11196)"><tspan class="TextParagraph" font-family="monospace, monospace" font-size="388px" font-weight="400"><tspan class="TextPosition" x="22481" y="11196"><tspan fill="rgb(0,0,0)" stroke="none">DEALER</tspan></tspan></tspan></text>
       </g>
      </g>
      <g class="com.sun.star.drawing.CustomShape">
       <g id="id32">
        <rect class="BoundingBox" stroke="none" fill="none" x="7604" y="13825" width="3052" height="1909"/>
        <path fill="rgb(204,204,204)" stroke="none" d="M 7605,14050 C 7605,13938 7784,13826 7963,13826 L 10295,13826 C 10474,13826 10654,13938 10654,14050 L 10654,15507 C 10654,15619 10474,15732 10295,15732 L 7963,15732 C 7784,15732 7605,15619 7605,15507 L 7605,14050 Z"/>
        <path fill="none" stroke="rgb(52,101,164)" d="M 7605,14050 C 7605,13938 7784,13826 7963,13826 L 10295,13826 C 10474,13826 10654,13938 10654,14050 L 10654,15507 C 10654,15619 10474,15732 10295,15732 L 7963,15732 C 7784,15732 7605,15619 7605,15507 L 7605,14050 Z"/>
        <text class="TextShape"><tspan class="TextParagraph" font-family="monospace, monospace" font-size="388px" font-weight="400"><tspan class="TextPosition" x="8431" y="14686"><tspan fill="rgb(0,0,0)" stroke="none">Uplink</tspan></tspan></tspan><tspan class="TextParagraph" font-family="monospace, monospace" font-size="388px" font-weight="400"><tspan class="TextPosition" x="8547" y="15139"><tspan fill="rgb(0,0,0)" stroke="none">:6001</tspan></tspan></tspan></text>
       </g>
      </g>
      <g class="com.sun.star.drawing.CustomShape">
       <g id="id33">
        <rect class="BoundingBox" stroke="none" fill="none" x="6968" y="13826" width="638" height="1908"/>
        <path fill="rgb(204,204,204)" stroke="none" d="M 7604,14780 L 7604,15732 6969,15732 6969,13827 7604,13827 7604,14780 Z"/>
        <path fill="none" stroke="rgb(52,101,164)" d="M 7604,14780 L 7604,15732 6969,15732 6969,13827 7604,13827 7604,14780 Z"/>
        <text class="TextShape" transform="rotate(-90 7420 15480)"><tspan class="TextParagraph" font-family="monospace, monospace" font-size="388px" font-weight="400"><tspan class="TextPosition" x="7420" y="15480"><tspan fill="rgb(0,0,0)" stroke="none">DEALER</tspan></tspan></tspan></text>
       </g>
      </g>
      <g class="com.sun.star.drawing.CustomShape">
       <g id="id34">
        <rect class="BoundingBox" stroke="none" fill="none" x="10651" y="13824" width="638" height="1908"/>
        <path fill="rgb(204,204,204)" stroke="none" d="M 10652,14778 L 10652,13825 11287,13825 11287,15730 10652,15730 10652,14778 Z"/>
        <path fill="none" stroke="rgb(52,101,164)" d="M 10652,14778 L 10652,13825 11287,13825 11287,15730 10652,15730 10652,14778 Z"/>
        <text class="TextShape" transform="rotate(89.9 10837 14079)"><tspan class="TextParagraph" font-family="monospace, monospace" font-size="388px" font-weight="400"><tspan class="TextPosition" x="10837" y="14079"><tspan fill="rgb(0,0,0)" stroke="none">DEALER</tspan></tspan></tspan></text>
       </g>
      </g>
      <g class="com.sun.star.drawing.CustomShape">
       <g id="id35">
        <rect class="BoundingBox" stroke="none" fill="none" x="13699" y="1887" width="3052" height="1909"/>
        <path fill="rgb(204,204,204)" stroke="none" d="M 13700,2112 C 13700,2000 13879,1888 14058,1888 L 16390,1888 C 16569,1888 16749,2000 16749,2112 L 16749,3569 C 16749,3681 16569,3794 16390,3794 L 14058,3794 C 13879,3794 13700,3681 13700,3569 L 13700,2112 Z"/>
        <path fill="none" stroke="rgb(52,101,164)" d="M 13700,2112 C 13700,2000 13879,1888 14058,1888 L 16390,1888 C 16569,1888 16749,2000 16749,2112 L 16749,3569 C 16749,3681 16569,3794 16390,3794 L 14058,3794 C 13879,3794 13700,3681 13700,3569 L 13700,2112 Z"/>
        <text class="TextShape"><tspan class="TextParagraph" font-family="monospace, monospace" font-size="388px" font-weight="400"><tspan class="TextPosition" x="14875" y="2748"><tspan fill="rgb(0,0,0)" stroke="none">Rpi</tspan></tspan></tspan><tspan class="TextParagraph" font-family="monospace, monospace" font-size="388px" font-weight="400"><tspan class="TextPosition" x="14526" y="3201"><tspan fill="rgb(0,0,0)" stroke="none">Health</tspan></tspan></tspan></text>
       </g>
      </g>
      <g class="com.sun.star.drawing.CustomShape">
       <g id="id36">
        <rect class="BoundingBox" stroke="none" fill="none" x="16746" y="1886" width="638" height="1908"/>
        <path fill="rgb(204,204,204)" stroke="none" d="M 16747,2840 L 16747,1887 17382,1887 17382,3792 16747,3792 16747,2840 Z"/>
        <path fill="none" stroke="rgb(52,101,164)" d="M 16747,2840 L 16747,1887 17382,1887 17382,3792 16747,3792 16747,2840 Z"/>
        <text class="TextShape" transform="rotate(89.9 16932 2374)"><tspan class="TextParagraph" font-family="monospace, monospace" font-size="388px" font-weight="400"><tspan class="TextPosition" x="16932" y="2374"><tspan fill="rgb(0,0,0)" stroke="none">PUSH</tspan></tspan></tspan></text>
       </g>
      </g>
      <g class="com.sun.star.drawing.CustomShape">
       <g id="id37">
        <rect class="BoundingBox" stroke="none" fill="none" x="25001" y="7348" width="1908" height="638"/>
        <path fill="rgb(204,204,204)" stroke="none" d="M 25955,7984 L 25002,7984 25002,7349 26907,7349 26907,7984 25955,7984 Z"/>
        <path fill="none" stroke="rgb(52,101,164)" d="M 25955,7984 L 25002,7984 25002,7349 26907,7349 26907,7984 25955,7984 Z"/>
        <text class="TextShape"><tspan class="TextParagraph" font-family="monospace, monospace" font-size="388px" font-weight="400"><tspan class="TextPosition" x="25489" y="7800"><tspan fill="rgb(0,0,0)" stroke="none">PULL</tspan></tspan></tspan></text>
       </g>
      </g>
      <g class="com.sun.star.drawing.ConnectorShape">
       <g id="id38">
        <rect class="BoundingBox" stroke="none" fill="none" x="17381" y="2839" width="1274" height="2927"/>
        <path fill="none" stroke="rgb(52,101,164)" d="M 17382,2840 L 18017,2840 18017,5764 18653,5764"/>
       </g>
      </g>
      <g class="com.sun.star.drawing.ConnectorShape">
       <g id="id39">
        <rect class="BoundingBox" stroke="none" fill="none" x="22969" y="5761" width="2988" height="1591"/>
        <path fill="none" stroke="rgb(52,101,164)" d="M 22970,5762 L 25955,5762 25955,7350"/>
       </g>
      </g>
      <g class="com.sun.star.drawing.ConnectorShape">
       <g id="id40">
        <rect class="BoundingBox" stroke="none" fill="none" x="17042" y="8976" width="1574" height="1397"/>
        <path fill="none" stroke="rgb(52,101,164)" d="M 17043,10371 L 17828,10371 17828,8977 18614,8977"/>
       </g>
      </g>
      <g class="com.sun.star.drawing.ConnectorShape">
       <g id="id41">
        <rect class="BoundingBox" stroke="none" fill="none" x="17042" y="10370" width="1574" height="1529"/>
        <path fill="none" stroke="rgb(52,101,164)" d="M 17043,10371 L 17828,10371 17828,11897 18614,11897"/>
       </g>
      </g>
      <g class="com.sun.star.drawing.ConnectorShape">
       <g id="id42">
        <rect class="BoundingBox" stroke="none" fill="none" x="22930" y="8974" width="1402" height="4"/>
        <path fill="none" stroke="rgb(52,101,164)" d="M 22931,8975 L 23630,8975 23630,8976 24330,8976"/>
       </g>
      </g>
      <g class="com.sun.star.drawing.ConnectorShape">
       <g id="id43">
        <rect class="BoundingBox" stroke="none" fill="none" x="22930" y="11894" width="1401" height="6"/>
        <path fill="none" stroke="rgb(52,101,164)" d="M 22931,11895 L 23630,11895 23630,11898 24329,11898"/>
       </g>
      </g>
      <g class="com.sun.star.drawing.ConnectorShape">
       <g id="id44">
        <rect class="BoundingBox" stroke="none" fill="none" x="11347" y="10370" width="1381" height="5"/>
        <path fill="none" stroke="rgb(52,101,164)" d="M 11348,10371 L 12037,10371 12037,10373 12726,10373"/>
       </g>
      </g>
      <g class="com.sun.star.drawing.ConnectorShape">
       <g id="id45">
        <rect class="BoundingBox" stroke="none" fill="none" x="5467" y="10372" width="1566" height="1526"/>
        <path fill="none" stroke="rgb(52,101,164)" d="M 7031,10373 L 6249,10373 6249,11896 5468,11896"/>
       </g>
      </g>
      <g class="com.sun.star.drawing.ConnectorShape">
       <g id="id46">
        <rect class="BoundingBox" stroke="none" fill="none" x="5339" y="8973" width="1694" height="1402"/>
        <path fill="none" stroke="rgb(52,101,164)" d="M 5340,8974 L 6185,8974 6185,10373 7031,10373"/>
       </g>
      </g>
      <g class="com.sun.star.drawing.ConnectorShape">
       <g id="id47">
        <rect class="BoundingBox" stroke="none" fill="none" x="6467" y="6652" width="566" height="3723"/>
        <path fill="none" stroke="rgb(52,101,164)" d="M 7031,10373 L 6468,10373 6468,6653 6970,6653"/>
       </g>
      </g>
      <g class="com.sun.star.drawing.CustomShape">
       <g id="id48">
        <rect class="BoundingBox" stroke="none" fill="none" x="13064" y="16873" width="3052" height="1909"/>
        <path fill="rgb(255,212,40)" stroke="none" d="M 13065,17098 C 13065,16986 13244,16874 13423,16874 L 15755,16874 C 15934,16874 16114,16986 16114,17098 L 16114,18555 C 16114,18667 15934,18780 15755,18780 L 13423,18780 C 13244,18780 13065,18667 13065,18555 L 13065,17098 Z"/>
        <path fill="none" stroke="rgb(52,101,164)" d="M 13065,17098 C 13065,16986 13244,16874 13423,16874 L 15755,16874 C 15934,16874 16114,16986 16114,17098 L 16114,18555 C 16114,18667 15934,18780 15755,18780 L 13423,18780 C 13244,18780 13065,18667 13065,18555 L 13065,17098 Z"/>
        <text class="TextShape"><tspan class="TextParagraph" font-family="monospace, monospace" font-size="388px" font-weight="400"><tspan class="TextPosition" x="13658" y="17507"><tspan fill="rgb(0,0,0)" stroke="none">Upstream</tspan></tspan></tspan><tspan class="TextParagraph" font-family="monospace, monospace" font-size="388px" font-weight="400"><tspan class="TextPosition" x="13541" y="17960"><tspan fill="rgb(0,0,0)" stroke="none">Gilgamesh</tspan></tspan></tspan><tspan class="TextParagraph" font-family="monospace, monospace" font-size="388px" font-weight="400"><tspan class="TextPosition" x="14124" y="18413"><tspan fill="rgb(0,0,0)" stroke="none">Node</tspan></tspan></tspan></text>
       </g>
      </g>
      <g class="com.sun.star.drawing.ConnectorShape">
       <g id="id49">
        <rect class="BoundingBox" stroke="none" fill="none" x="6467" y="10372" width="566" height="4410"/>
        <path fill="none" stroke="rgb(52,101,164)" d="M 7031,10373 L 6468,10373 6468,14780 6970,14780"/>
       </g>
      </g>
      <g class="com.sun.star.drawing.ConnectorShape">
       <g id="id50">
        <rect class="BoundingBox" stroke="none" fill="none" x="11286" y="14777" width="1781" height="3053"/>
        <path fill="none" stroke="rgb(52,101,164)" d="M 11287,14778 L 12176,14778 12176,17828 13065,17828"/>
       </g>
      </g>
      <g class="com.sun.star.drawing.CustomShape">
       <g id="id51">
        <rect class="BoundingBox" stroke="none" fill="none" x="12302" y="8873" width="5084" height="3052"/>
        <path fill="none" stroke="rgb(52,101,164)" d="M 12825,8874 C 12564,8874 12303,9135 12303,9396 L 12303,11400 C 12303,11661 12564,11923 12825,11923"/>
        <path fill="none" stroke="rgb(52,101,164)" d="M 16861,11923 C 17122,11923 17384,11661 17384,11400 L 17384,9396 C 17384,9135 17122,8874 16861,8874"/>
       </g>
      </g>
      <g class="com.sun.star.drawing.CustomShape">
       <g id="id52">
        <rect class="BoundingBox" stroke="none" fill="none" x="23859" y="10597" width="5084" height="3052"/>
        <path fill="none" stroke="rgb(52,101,164)" d="M 24382,10598 C 24121,10598 23860,10859 23860,11120 L 23860,13124 C 23860,13385 24121,13647 24382,13647"/>
        <path fill="none" stroke="rgb(52,101,164)" d="M 28418,13647 C 28679,13647 28941,13385 28941,13124 L 28941,11120 C 28941,10859 28679,10598 28418,10598"/>
       </g>
      </g>
      <g class="com.sun.star.drawing.CustomShape">
       <g id="id53">
        <rect class="BoundingBox" stroke="none" fill="none" x="23859" y="7322" width="5084" height="3052"/>
        <path fill="none" stroke="rgb(52,101,164)" d="M 24382,7323 C 24121,7323 23860,7584 23860,7845 L 23860,9849 C 23860,10110 24121,10372 24382,10372"/>
        <path fill="none" stroke="rgb(52,101,164)" d="M 28418,10372 C 28679,10372 28941,10110 28941,9849 L 28941,7845 C 28941,7584 28679,7323 28418,7323"/>
       </g>
      </g>
      <g class="com.sun.star.drawing.CustomShape">
       <g id="id54">
        <rect class="BoundingBox" stroke="none" fill="none" x="19921" y="4173" width="1908" height="638"/>
        <path fill="rgb(204,204,204)" stroke="none" d="M 20875,4809 L 19922,4809 19922,4174 21827,4174 21827,4809 20875,4809 Z"/>
        <path fill="none" stroke="rgb(52,101,164)" d="M 20875,4809 L 19922,4809 19922,4174 21827,4174 21827,4809 20875,4809 Z"/>
        <text class="TextShape"><tspan class="TextParagraph" font-family="monospace, monospace" font-size="388px" font-weight="400"><tspan class="TextPosition" x="20525" y="4625"><tspan fill="rgb(0,0,0)" stroke="none">PUB</tspan></tspan></tspan></text>
       </g>
      </g>
      <g class="com.sun.star.drawing.CustomShape">
       <g id="id55">
        <rect class="BoundingBox" stroke="none" fill="none" x="24621" y="1506" width="3052" height="1909"/>
        <path fill="rgb(255,212,40)" stroke="none" d="M 24622,1731 C 24622,1619 24801,1507 24980,1507 L 27312,1507 C 27491,1507 27671,1619 27671,1731 L 27671,3188 C 27671,3300 27491,3413 27312,3413 L 24980,3413 C 24801,3413 24622,3300 24622,3188 L 24622,1731 Z"/>
        <path fill="none" stroke="rgb(52,101,164)" d="M 24622,1731 C 24622,1619 24801,1507 24980,1507 L 27312,1507 C 27491,1507 27671,1619 27671,1731 L 27671,3188 C 27671,3300 27491,3413 27312,3413 L 24980,3413 C 24801,3413 24622,3300 24622,3188 L 24622,1731 Z"/>
        <text class="TextShape"><tspan class="TextParagraph" font-family="monospace, monospace" font-size="388px" font-weight="400"><tspan class="TextPosition" x="25681" y="2367"><tspan fill="rgb(0,0,0)" stroke="none">Live</tspan></tspan></tspan><tspan class="TextParagraph" font-family="monospace, monospace" font-size="388px" font-weight="400"><tspan class="TextPosition" x="25448" y="2820"><tspan fill="rgb(0,0,0)" stroke="none">Stream</tspan></tspan></tspan></text>
       </g>
      </g>
      <g class="com.sun.star.drawing.ConnectorShape">
       <g id="id56">
        <rect class="BoundingBox" stroke="none" fill="none" x="20874" y="2460" width="3750" height="1717"/>
        <path fill="none" stroke="rgb(52,101,164)" d="M 20875,4175 L 20875,2461 24622,2461"/>
       </g>
      </g>
      <g class="com.sun.star.drawing.CustomShape">
       <g id="id57">
        <rect class="BoundingBox" stroke="none" fill="none" x="19921" y="4173" width="1908" height="638"/>
        <path fill="rgb(204,204,204)" stroke="none" d="M 20875,4809 L 19922,4809 19922,4174 21827,4174 21827,4809 20875,4809 Z"/>
        <path fill="none" stroke="rgb(52,101,164)" d="M 20875,4809 L 19922,4809 19922,4174 21827,4174 21827,4809 20875,4809 Z"/>
        <text class="TextShape"><tspan class="TextParagraph" font-family="monospace, monospace" font-size="388px" font-weight="400"><tspan class="TextPosition" x="20525" y="4625"><tspan fill="rgb(0,0,0)" stroke="none">PUB</tspan></tspan></tspan></text>
       </g>
      </g>
      <g class="com.sun.star.drawing.CustomShape">
       <g id="id58">
        <rect class="BoundingBox" stroke="none" fill="none" x="1634" y="1887" width="3052" height="1909"/>
        <path fill="rgb(204,204,204)" stroke="none" d="M 1635,2112 C 1635,2000 1814,1888 1993,1888 L 4325,1888 C 4504,1888 4684,2000 4684,2112 L 4684,3569 C 4684,3681 4504,3794 4325,3794 L 1993,3794 C 1814,3794 1635,3681 1635,3569 L 1635,2112 Z"/>
        <path fill="none" stroke="rgb(52,101,164)" d="M 1635,2112 C 1635,2000 1814,1888 1993,1888 L 4325,1888 C 4504,1888 4684,2000 4684,2112 L 4684,3569 C 4684,3681 4504,3794 4325,3794 L 1993,3794 C 1814,3794 1635,3681 1635,3569 L 1635,2112 Z"/>
        <text class="TextShape"><tspan class="TextParagraph" font-family="monospace, monospace" font-size="388px" font-weight="400"><tspan class="TextPosition" x="2228" y="2748"><tspan fill="rgb(0,0,0)" stroke="none">Resource</tspan></tspan></tspan><tspan class="TextParagraph" font-family="monospace, monospace" font-size="388px" font-weight="400"><tspan class="TextPosition" x="2344" y="3201"><tspan fill="rgb(0,0,0)" stroke="none">Manager</tspan></tspan></tspan></text>
       </g>
      </g>
     </g>
    </g>
   </g>
  </g>
 </g>
</svg>